^E:\ETC\PARALLAKSIS\COLLABORATION DESKTOP\ISTANCES\ALPAC\ADMIN DIALOGO\UTILITY\XTREEII\CLIFTON.WINDOWS.FORMS\CLIFTON.WINDOWS.FORMS.RESX|E:\ETC\PARALLAKSIS\COLLABORATION DESKTOP\ISTANCES\ALPAC\ADMIN DIALOGO\UTILITY\XTREEII\CLIFTON.WINDOWS.FORMS\PROPERTIES\RESOURCES.RESX
E:\ETC\PARALLAKSIS\COLLABORATION DESKTOP\ISTANCES\ALPAC\ADMIN DIALOGO\UTILITY\XTREEII\CLIFTON.WINDOWS.FORMS\OBJ\DEBUG\CLIFTON.WINDOWS.FORMS.CLIFTON.WINDOWS.FORMS.RESOURCES
E:\ETC\PARALLAKSIS\COLLABORATION DESKTOP\ISTANCES\ALPAC\ADMIN DIALOGO\UTILITY\XTREEII\CLIFTON.WINDOWS.FORMS\OBJ\DEBUG\CLIFTON.WINDOWS.FORMS.PROPERTIES.RESOURCES.RESOURCES
