Anno;Comm. ;C.d.C.;Att.  ;N. RdA   ;Pos.;Stato RdA      ;Data RdA   ;Ric.      ;Forn. ;Rag. Soc.                          ;Ord.      ;Pos.; Data ord.;   Impegnato    ;    Ordinato    ;    Ricevuto    ;   Liquidato    ; Altri Consumi  ;C;Content   ;
    ;      ;      ;      ;N. PRP   ;    ;               ;Data PRP   ;per Data  ;      ;                                   ;          ;    ;          ;                ;                ;                ;                ;Prot./Man./BdP. ; ;          ;
    ;      ;      ;      ;Nr.Ord.C.;    ;               ;Data O.Cons;          ;      ;                                   ;          ;    ;          ;      DL        ;       DL       ;       DL       ;       DL       ;       DL       ; ;          ;
    ;      ;      ;      ;N. BdP   ;    ;               ;Data BdP   ;          ;      ;                                   ;          ;    ;          ;                ;                ;                ;                ;                ; ;          ;
2019;3A3   ;M0200 ;3A108P;997511   ;    ;               ;08/03/2019 ;          ; 14202;PARALLAKSIS ITALIA                    ;  52027621;   2;28/03/2019;            0,00;            0,00;            0,00;          104,00;            0,00; ;          ;
2019;3A3   ;M0200 ;3A108P;997510   ;    ;               ;08/03/2019 ;          ; 14202;LUCA S.P.A.                    ;  52027621;   1;28/03/2019;            0,00;            0,00;            0,00;           27,00;            0,00; ;          ;
2019;3A3   ;M0200 ;3APRXM;  1032   ;    ;               ;04/12/2019 ;          ; 18304;FIAT AUTO SPA PROD CAR E 145       ;  52029954; 143;09/01/2020;            0,00;        1.326,72;            0,00;            0,00;            0,00; ;          ;
2019;3A3   ;M0200 ;3APRXM;  1056   ;    ;               ;04/12/2019 ;          ; 18304;FIAT AUTO SPA PROD CAR E 145       ;  52029954; 159;09/01/2020;            0,00;       10.289,84;            0,00;            0,00;            0,00; ;          ;
2019;3A3   ;M0200 ;3APRXM;  1076   ;    ;               ;04/12/2019 ;          ; 18304;FIAT AUTO SPA PROD CAR E 145       ;  52029954; 174;09/01/2020;            0,00;        1.064,80;            0,00;            0,00;            0,00; ;          ;













