<?xml version="1.0" encoding="utf-8"?>
<!-- Generator: Adobe Illustrator 22.0.0, SVG Export Plug-In . SVG Version: 6.00 Build 0)  -->
<svg version="1.1" id="Livello_1" xmlns="http://www.w3.org/2000/svg" xmlns:xlink="http://www.w3.org/1999/xlink" x="0px" y="0px"
	 viewBox="0 0 150 40" style="enable-background:new 0 0 150 40;" xml:space="preserve">
<style type="text/css">
	.st0{fill:#FFFFFF;}
</style>
<path class="st0" d="M16.7,31.8h5.8v1.4h-5.8V31.8z M17.4,33.8h4.4v3h-4.4V33.8z M11,25.2h17.2v0.7H11V25.2z M10.1,26.6h19.1v0.7
	H10.1L10.1,26.6z M10,23.9h19.1v0.7H10L10,23.9z M22.6,28.8c-1,0.9-1,2.4-1,2.4h-4.1c0,0,0-1.6-1-2.4c-0.7-0.6-1.5-0.7-1.5-0.7
	c-0.5-0.1-0.5-0.2-0.5-0.2h10c0,0,0,0.1-0.5,0.2C24.1,28.1,23.3,28.2,22.6,28.8L22.6,28.8z M11.1,27.9h2.1c0,1.2-0.8,1.8-2.1,1.5
	V27.9z M18.4,8.1c0.8-1.6,1-4.1,1.2-4.1c0.2,0,0.4,2.5,1.2,4.1c0.8,1.5,2.5,2.9,2.4,3c-0.1,0.2-1-0.3-1.5-0.5
	c-0.7-0.4-1.4-0.6-1.4-0.6s-0.3,3.9,0.6,7.5c0.8,2.9,2.6,5.6,2.8,5.9h-2.4L21.1,23c-0.6-1.1-1.1-2.1-1.5-3.8
	c-0.5,1.7-0.9,2.7-1.6,3.8l-0.2,0.4h-2.4c0.2-0.2,2-2.9,2.8-5.9c1-3.6,0.6-7.5,0.6-7.5s-0.6,0.3-1.4,0.6c-0.5,0.2-1.4,0.7-1.5,0.5
	C16,11,17.6,9.6,18.4,8.1L18.4,8.1z M11,23.3c0-0.3-0.2-4.2-1.1-7.4c-1-3.4-3.1-5.4-2.9-5.6c0.1-0.2,1.8,0.1,3.1,1
	c1.4,0.9,2.7,2.5,2.6,2.6c-0.1,0.1-0.5-0.3-1.4-0.6C10.4,13,10,13.1,10,13.1s1.5,2.4,2.2,5c0.6,2.2,0.9,5,0.9,5.2H11z M28.2,23.3
	c0-0.3,0.1-4.2,1.1-7.4c1-3.4,3.1-5.4,2.9-5.6c-0.1-0.2-1.8,0.1-3.1,1c-1.4,0.9-2.7,2.5-2.6,2.6c0.1,0.1,0.5-0.3,1.3-0.6
	c0.9-0.3,1.2-0.2,1.2-0.2s-1.5,2.4-2.2,5c-0.6,2.2-0.9,5-0.9,5.2H28.2z M28.1,27.9h-2.1c0,1.2,0.8,1.8,2.1,1.5V27.9z"/>
<path class="st0" d="M113.6,19.1l-1.5,3.8h2.8L113.6,19.1z M111.4,24.9c-0.2,0.5-0.5,1.3-0.5,1.8s0.5,0.7,1,0.8l0.7,0.1v0.5h-4.3
	v-0.5c0.9-0.2,1.2-0.4,1.6-1.1c0.1-0.2,0.2-0.5,0.3-0.9l0.3-0.7l2.7-6.9l-0.3-0.7h1.9l2.8,7.6l0.5,1.3c0.1,0.3,0.3,0.9,0.5,1.1
	c0.2,0.2,0.5,0.3,1.2,0.3v0.5h-5.2v-0.5c0.9,0,1.6-0.1,1.6-0.7c0-0.3-0.1-0.9-0.3-1.3l-0.3-0.7l-0.4-1.3h-3.4L111.4,24.9z M100.1,18
	c-0.4,0-0.8,0.1-1,0.1V23h1c0.5,0,1-0.1,1.5-0.3c0.5-0.3,1-0.9,1-2.1C102.6,18.6,101.1,18,100.1,18L100.1,18z M99.1,24.9v1.1
	c0,1.4,0.1,1.6,1.1,1.6h0.8v0.5h-5.5v-0.5c1.6,0.1,1.7-0.4,1.7-1.3v-6.8c0-1.1-0.2-1.1-1.7-1.2v-0.5c1.1-0.1,2.5-0.3,4.3-0.3
	c0.8,0,4.7,0,4.7,3.1c0,1.2-0.6,2-1.6,2.5c-0.2,0.1-0.5,0.2-0.6,0.3c0.2,0.2,0.4,0.4,0.5,0.6c0.1,0.2,0.3,0.5,0.5,1l0.3,0.7
	c0.8,1.6,1.2,2,2.1,2.1v0.5c-1.6,0.1-2.8-0.5-3.8-2.1c-0.1-0.2-0.5-0.8-0.8-1.4c-0.3-0.5-0.6-1.1-0.7-1.3h-1.5L99.1,24.9z M61,19.1
	l-1.5,3.8h2.8L61,19.1z M58.7,24.9c-0.2,0.5-0.5,1.3-0.5,1.8s0.5,0.7,1,0.8l0.7,0.1v0.5h-4.3v-0.5c0.9-0.2,1.2-0.4,1.6-1.1l0.3-0.9
	l0.3-0.7l2.8-6.9l-0.3-0.7h1.9l2.8,7.6l0.5,1.3c0.1,0.3,0.3,0.9,0.5,1.1c0.2,0.2,0.5,0.3,1.2,0.3v0.5h-5.2v-0.5
	c0.9,0,1.6-0.1,1.6-0.7c0-0.3-0.2-0.9-0.3-1.3l-0.3-0.7l-0.5-1.3h-3.4L58.7,24.9z M139.4,24.9V26c0,1.3,0.3,1.5,1.9,1.6v0.5h-5.4
	v-0.5c1.3-0.1,1.3-0.1,1.5-0.4c0.3-0.4,0.3-1.7,0.3-2.2v-5.3c0-1.3-0.3-1.5-1.8-1.6v-0.5h5.4v0.5c-1.8,0.1-1.8,0.3-1.8,2.1
	L139.4,24.9L139.4,24.9z M127.6,24.9v1.2c0,0.7,0.1,1,0.3,1.2c0.1,0.1,0.3,0.1,0.6,0.2c0.3,0,0.6,0.1,1.1,0.1v0.5h-5.8v-0.5
	c0.5,0,0.9-0.1,1.1-0.1c0.3-0.1,0.5-0.1,0.6-0.2c0.2-0.1,0.3-0.5,0.3-1.1v-8H124c-0.7,0-1,0.1-1.1,0.2c-0.1,0.1-0.2,0.2-0.3,0.4
	c-0.1,0.2-0.2,0.6-0.4,1.2h-0.5l0.2-2.8h0.4c0.2,0.3,0.3,0.3,0.6,0.3h7.2c0.8,0,0.9-0.1,1-0.3h0.4l0.3,2.8h-0.5
	c-0.4-1.8-0.7-1.8-1.6-1.8h-2L127.6,24.9z M85.8,24.9v1.6c0,1,0.1,1,1,1h1.8c1.1,0,1.6-0.2,2.1-2h0.6L91,28h-8.8v-0.5
	c1.6,0.1,1.7-0.4,1.7-1.3v-6.8c0-1.2-0.3-1.4-1.7-1.4v-0.5h8.4l0.1,2.4h-0.5c-0.3-1.6-0.7-1.7-1.8-1.7h-2.6v4.2h2.6
	c0.9,0,1.1,0,1.2-1.3h0.6v3.3h-0.6c-0.1-1.3-0.2-1.4-1.4-1.4h-2.4L85.8,24.9L85.8,24.9z M77.7,24.9c0,0.2,0.1,0.4,0.1,0.5
	c0,1.6-1.3,3-3.3,3c-0.3,0-0.5,0-0.8-0.1c-0.3-0.1-0.7-0.2-1.3-0.3C72.2,28,72.1,28,72.1,28c-0.2,0-0.3,0.1-0.3,0.2h-0.5L71,25.5
	h0.6c0.7,2.1,2.2,2.3,2.7,2.3c0.7,0,2-0.4,2-1.8c0-0.5-0.1-0.8-0.4-1.2c-0.4-0.6-1.2-1-2.3-1.7c-2.2-1.3-2.6-2.3-2.6-3.2
	c0-1.6,1.4-2.7,2.9-2.7c0.6,0,1.1,0.1,1.6,0.3c0.1,0.1,0.6,0.3,0.7,0.3c0.1,0,0.1-0.1,0.3-0.2H77l0.3,2.5h-0.6
	c-0.5-1.4-1.4-2.2-2.5-2.2c-0.9,0-1.6,0.7-1.6,1.5c0,0.5,0.1,0.8,0.6,1.2c0.2,0.2,0.5,0.5,0.9,0.7l1.5,1c0.5,0.3,0.9,0.6,1.3,1.1
	C77.3,23.7,77.6,24.2,77.7,24.9L77.7,24.9z M39.7,24.9l-0.1,1.3c0,0.1,0,0.5,0,0.7c0,0.7,0.9,0.7,1.5,0.7v0.5h-4.2v-0.5
	c1.8-0.1,1.8-0.2,2-2l0.1-0.7l0.5-5.7c0.1-1-0.1-1-1.5-1.1v-0.5h3.6l3.2,7.3l0.2,0.5l0.3-0.5l3.2-7.3h3.5v0.5c-0.4,0-0.7,0-0.9,0
	c-0.2,0.1-0.3,0.1-0.4,0.2c-0.2,0.2-0.2,0.5-0.1,1.4l0.3,5.2l0.1,0.9c0.1,1.4,0.1,1.8,1.7,1.8v0.5h-5.1v-0.5c0.4,0,0.9-0.1,1.3-0.2
	c0.3-0.1,0.5-0.3,0.5-0.7c0-0.1-0.1-0.6-0.1-0.8l-0.1-1.1l-0.3-5.7l-2.5,5.7l-1.4,3.2H44l-1.4-3.2l-2.4-5.7L39.7,24.9z"/>
</svg>
